{
  "Recomendaciones": {
    "Recomendacion 1": "07-08-1999_22_45_13",
    "Recomendacion 2": "09-01-2010_05_35_45",
    "Recomendacion 3": "05-09-2016_17_52_25",
    "Recomendacion 4": "01-08-2015_20_59_59",
    "Recomendacion 5": "05-06-2006_23_28_29",
    "Recomendacion 6": "09-02-2001_20_37_56",
    "Recomendacion 7": "11-25-1968_14_39_54",
    "Recomendacion 8": "12-24-2009_23_58_59",
    "Recomendacion 9": "10-19-2008_10_29_39",
    "Recomendacion 10": "29-04-2000_22_29_29"
  }
}